[gd_scene load_steps=3 format=2]

[ext_resource path="res://src/interactables/readable/Readable.gd" type="Script" id=1]
[ext_resource path="res://src/interactables/interactable/Interactable.tscn" type="PackedScene" id=2]

[node name="Readable" instance=ExtResource( 2 )]
script = ExtResource( 1 )
