[gd_scene load_steps=3 format=2]

[ext_resource path="res://src/interactables/interactable-range/InteractableRange.gd" type="Script" id=1]

[sub_resource type="CylinderShape" id=4]
radius = 0.0836429
height = 0.157128

[node name="InteractableRange" type="Area"]
script = ExtResource( 1 )

[node name="CollisionShape" type="CollisionShape" parent="."]
shape = SubResource( 4 )
